…
# make rank_table a tibble for better printing
rank_tables <- tbl_df(rank_tables)

#take a look...
rank_tables
{% endhighlight %}



{% highlight text %}
## # A tibble: 50 × 8
##     rank x_classification       date region start_time maximum_time
##    <int>            <chr>      <chr>  <chr>      <chr>        <chr>
## 1      1            X28.0 2003/11/04   0486      19:29        19:53
## 2      2              X20 2001/04/02   9393      21:32        21:51
## 3      3            X17.2 2003/10/28   0486      09:51        11:10
## 4      4            X17.0 2005/09/07   0808      17:17        17:40
## 5      5            X14.4 2001/04/15   9415      13:19        13:50
## 6      6            X10.0 2003/10/29   0486      20:37        20:49
## 7      7             X9.4 1997/11/06      -      11:49        11:55
## 8      8             X9.0 2006/12/05   0930      10:18        10:35
## 9      9             X8.3 2003/11/02   0486      17:03        17:25
## 10    10             X7.1 2005/01/20   0720      06:36        07:01
## # ... with 40 more rows, and 2 more variables: end_time <chr>, movie <chr>
…
The result of this step should be a data frame with the first few rows as:

{% highlight r %}
rank_tables
{% endhighlight %}



{% highlight text %}
## # A tibble: 50 × 6
##     rank x_classification      start_datetime        max_datetime
##    <int>            <chr>              <dttm>              <dttm>
## 1      1            X28.0 2003-11-04 19:29:00 2003-11-04 19:53:00
## 2      2              X20 2001-04-02 21:32:00 2001-04-02 21:51:00
## 3      3            X17.2 2003-10-28 09:51:00 2003-10-28 11:10:00
## 4      4            X17.0 2005-09-07 17:17:00 2005-09-07 17:40:00
## 5      5            X14.4 2001-04-15 13:19:00 2001-04-15 13:50:00
## 6      6            X10.0 2003-10-29 20:37:00 2003-10-29 20:49:00
## 7      7             X9.4 1997-11-06 11:49:00 1997-11-06 11:55:00
## 8      8             X9.0 2006-12-05 10:18:00 2006-12-05 10:35:00
## 9      9             X8.3 2003-11-02 17:03:00 2003-11-02 17:25:00
## 10    10             X7.1 2005-01-20 06:36:00 2005-01-20 07:01:00
## # ... with 40 more rows, and 2 more variables: end_datetime <dttm>,
## #   region <chr>
…
# take a look...
wind_tab
{% endhighlight %}



{% highlight text %}
## # A tibble: 497 × 13
##    start_datetime end_datetime cme_datetime start_frequency end_frequency
## *          <dttm>       <dttm>       <dttm>           <chr>         <chr>
## 1            <NA>         <NA>         <NA>            <NA>          <NA>
## 2            <NA>         <NA>         <NA>            type            II
## 3            <NA>         <NA>         <NA>              on           Oct
## 4            <NA>         <NA>         <NA>      determined         using
## 5            <NA>         <NA>         <NA>            <NA>          <NA>
## 6            <NA>         <NA>         <NA>            <NA>          <NA>
## 7            <NA>         <NA>         <NA>            <NA>          <NA>
## 8            <NA>         <NA>         <NA>           Flare           CME
## 9            <NA>         <NA>         <NA>            <NA>          <NA>
## 10           <NA>         <NA>         <NA>            NOAA           Imp
## # ... with 487 more rows, and 8 more variables: flare_location <chr>,
## #   flare_region <chr>, flare_classification <chr>, cme_angle <chr>,
## #   cme_width <chr>, cme_speed <chr>, cme_halo <lgl>, cme_width_lb <lgl>
…
# remove the splited columns we created
wind_w_class <- wind_w_class %>%
  select(-main_classification, -sub_classification, -startdate, -starttime)

# set our original wind_tab to this new one that includes rank information
wind_tab <- wind_w_class

# take a look...
wind_tab
{% endhighlight %}



{% highlight text %}
## # A tibble: 497 × 14
##    start_datetime end_datetime cme_datetime start_frequency end_frequency
##            <dttm>       <dttm>       <dttm>           <chr>         <chr>
## 1            <NA>         <NA>         <NA>            <NA>          <NA>
## 2            <NA>         <NA>         <NA>            type            II
## 3            <NA>         <NA>         <NA>              on           Oct
## 4            <NA>         <NA>         <NA>      determined         using
## 5            <NA>         <NA>         <NA>            <NA>          <NA>
## 6            <NA>         <NA>         <NA>            <NA>          <NA>
## 7            <NA>         <NA>         <NA>            <NA>          <NA>
## 8            <NA>         <NA>         <NA>           Flare           CME
## 9            <NA>         <NA>         <NA>            <NA>          <NA>
## 10           <NA>         <NA>         <NA>            NOAA           Imp
## # ... with 487 more rows, and 9 more variables: flare_location <chr>,
## #   flare_region <chr>, flare_classification <chr>, cme_angle <chr>,
## #   cme_width <chr>, cme_speed <chr>, cme_halo <lgl>, cme_width_lb <lgl>,
## #   rank <int>
{% endhighlight %}



{% highlight r %}
# and also w/rank
wind_tab %>%
  select(start_datetime, flare_classification, rank)
{% endhighlight %}



{% highlight text %}
## # A tibble: 497 × 3
##    start_datetime flare_classification  rank
##            <dttm>                <chr> <int>
## 1            <NA>                 <NA>    NA
## 2            <NA>                   by    NA
## 3            <NA>                start    NA
## 4            <NA>                  and    NA
## 5            <NA>                 <NA>    NA
## 6            <NA>                 <NA>    NA
## 7            <NA>                 <NA>    NA
## 8            <NA>                 <NA>    NA
## 9            <NA>                 <NA>    NA
## 10           <NA>                  CPA    NA
## # ... with 487 more rows
…
