RStudio
…
# ... with 4 variables: teamID <chr>, average_pay_in_years <dbl>, average_win_percent_in_years <dbl>,
#   year_range <fctr>
> avg_stats_per_year %>% select(teamID,average_pay_in_years,average_win_percent_in_years,year_range)
Source: local data frame [148 x 4]
Groups: year_range [5]

   teamID average_pay_in_years average_win_percent_in_years  year_range
    <chr>                <dbl>                        <dbl>      <fctr>
1     ATL             14475059                     40.22038 (1985,1991]
2     BAL             11658262                     45.40360 (1985,1991]
3     BOS             14563356                     52.89024 (1985,1991]
4     CAL             15077312                     51.74897 (1985,1991]
5     CHA              9008958                     48.18396 (1985,1991]
6     CHN             13605046                     48.44389 (1985,1991]
7     CIN             10646369                     52.73049 (1985,1991]
8     CLE              9232153                     44.49431 (1985,1991]
9     DET             13402658                     50.97960 (1985,1991]
10    HOU             13020061                     51.23457 (1985,1991]
# ... with 138 more rows
> avg_stats_per_year
Source: local data frame [148 x 4]
Groups: year_range [5]

    year_range teamID average_pay_in_years average_win_percent_in_years
        <fctr>  <chr>                <dbl>                        <dbl>
1  (1985,1991]    ATL             14475059                     40.22038
2  (1985,1991]    BAL             11658262                     45.40360
3  (1985,1991]    BOS             14563356                     52.89024
4  (1985,1991]    CAL             15077312                     51.74897
5  (1985,1991]    CHA              9008958                     48.18396
6  (1985,1991]    CHN             13605046                     48.44389
7  (1985,1991]    CIN             10646369                     52.73049
8  (1985,1991]    CLE              9232153                     44.49431
9  (1985,1991]    DET             13402658                     50.97960
10 (1985,1991]    HOU             13020061                     51.23457
# ... with 138 more rows
> avg_stats_per_year %>% sample_n(10)
Source: local data frame [50 x 4]
Groups: year_range [5]

    year_range teamID average_pay_in_years average_win_percent_in_years
        <fctr>  <chr>                <dbl>                        <dbl>
1  (1985,1991]    BOS             14563356                     52.89024
2  (1985,1991]    PHI             11807505                     46.30896
3  (1985,1991]    TOR             13027137                     55.87318
4  (1985,1991]    SEA              7085071                     45.00230
5  (1985,1991]    CLE              9232153                     44.49431
6  (1985,1991]    CHA              9008958                     48.18396
7  (1985,1991]    OAK             12618240                     55.55556
8  (1985,1991]    LAN             16466313                     51.33359
9  (1985,1991]    CAL             15077312                     51.74897
10 (1985,1991]    SFN             11856147                     50.92593
# ... with 40 more rows
> avg_stats_per_year %>% sample_n(10)
Source: local data frame [50 x 4]
Groups: year_range [5]

    year_range teamID average_pay_in_years average_win_percent_in_years
        <fctr>  <chr>                <dbl>                        <dbl>
1  (1985,1991]    DET             13402658                     50.97960
2  (1985,1991]    HOU             13020061                     51.23457
3  (1985,1991]    NYA             17883336                     51.80968
4  (1985,1991]    ATL             14475059                     40.22038
5  (1985,1991]    TOR             13027137                     55.87318
6  (1985,1991]    TEX              7901650                     47.40945
7  (1985,1991]    BOS             14563356                     52.89024
8  (1985,1991]    MON             11252155                     51.49272
9  (1985,1991]    CLE              9232153                     44.49431
10 (1985,1991]    PHI             11807505                     46.30896
# ... with 40 more rows
…
+   xlab("Year") +
+   ylab("Winning Efficiency") +
+   ggtitle("Efficiency of Teams (Overall) Over Time") +
+   labs(colour="Team")
> payroll_tab %>% 
+   filter(teamID %in% c("OAK", "BOS", "NYA", "ATL", "TBA")) %>% 
+   ggplot(aes(x=yearID, y=efficiency, color = teamID)) +
+   geom_smooth() +
+   #geom_point(aes(colour=teamID)) +
+   xlab("Year") +
+   ylab("Winning Efficiency") +
+   ggtitle("Efficiency of Specific Teams Over Time") +
+   labs(colour="Team")
> avg_stats_per_year %>% sample_n(10)
Source: local data frame [50 x 4]
Groups: year_range [5]

    year_range teamID average_pay_in_years average_win_percent_in_years
        <fctr>  <chr>                <dbl>                        <dbl>
1  (1985,1991]    DET             13402658                     50.97960
2  (1985,1991]    NYA             17883336                     51.80968
3  (1985,1991]    MIN             10584470                     49.17695
4  (1985,1991]    CLE              9232153                     44.49431
5  (1985,1991]    CHN             13605046                     48.44389
6  (1985,1991]    KCA             15132358                     51.64481
7  (1985,1991]    NYN             16158735                     59.38786
8  (1985,1991]    LAN             16466313                     51.33359
9  (1985,1991]    ML4             11362523                     49.58017
10 (1985,1991]    OAK             12618240                     55.55556
# ... with 40 more rows
> avg_stats_per_year <- payroll_tab %>% 
+   group_by(year_range,teamID) %>% 
+   summarise(average_pay_in_years = mean(payroll), 
+             average_win_percent_in_years = mean(win_percentage, na.rm=TRUE))
> avg_stats_per_year %>% sample_n(10)
Source: local data frame [0 x 4]
Groups: year_range [0]

# ... with 4 variables: year_range <fctr>, teamID <chr>, average_pay_in_years <dbl>,
#   average_win_percent_in_years <dbl>
> avg_stats_per_year
Source: local data frame [148 x 4]
Groups: year_range [?]

    year_range teamID average_pay_in_years average_win_percent_in_years
        <fctr>  <chr>                <dbl>                        <dbl>
1  (1985,1991]    ATL             14475059                     40.22038
2  (1985,1991]    BAL             11658262                     45.40360
3  (1985,1991]    BOS             14563356                     52.89024
4  (1985,1991]    CAL             15077312                     51.74897
5  (1985,1991]    CHA              9008958                     48.18396
6  (1985,1991]    CHN             13605046                     48.44389
7  (1985,1991]    CIN             10646369                     52.73049
8  (1985,1991]    CLE              9232153                     44.49431
9  (1985,1991]    DET             13402658                     50.97960
10 (1985,1991]    HOU             13020061                     51.23457
# ... with 138 more rows
…
